Using omxr
…
You can transform a matrix to long format, which is more tidyverse friendly.

library(tidyverse)
read_omx("simple.omx", "trips") %>%
  long_matrix(value = "trips")

## # A tibble: 100 × 3
##    origin destination    trips
##     <int>       <int>    <dbl>
## 1       1           1 200.9373
## 2       2           1 190.7874
## 3       3           1 131.4335
## 4       4           1 170.0416
## 5       5           1 214.7273
## 6       6           1 219.4897
## 7       7           1 139.5962
## 8       8           1 181.8162
## 9       9           1 118.6664
## 10     10           1 187.1761
## # ... with 90 more rows
…
